{
  "cordova-sqlite-evcore-extbuild-free": {
    "source": {
      "type": "registry",
      "id": "cordova-sqlite-evcore-extbuild-free"
    },
    "is_top_level": true,
    "variables": {}
  },
  "cordova-plugin-whitelist": {
    "source": {
      "type": "registry",
      "id": "cordova-plugin-whitelist@1"
    },
    "is_top_level": true,
    "variables": {}
  }
}